WestDRI - Plotting
…
This section focuses on plotting in R with the package ggplot2 from the tidyverse.

The data

R comes with a number of datasets. You can get a list by running data(). The ggplot2 package provides additional ones. We will use the mpg dataset from ggplot2.

To access the data, let’s load the package:

library(ggplot2)

Here is what that dataset looks like:

mpg

# A tibble: 234 × 11
   manufacturer model      displ  year   cyl trans      drv     cty   hwy fl   
   <chr>        <chr>      <dbl> <int> <int> <chr>      <chr> <int> <int> <chr>
 1 audi         a4           1.8  1999     4 auto(l5)   f        18    29 p    
 2 audi         a4           1.8  1999     4 manual(m5) f        21    29 p    
 3 audi         a4           2    2008     4 manual(m6) f        20    31 p    
 4 audi         a4           2    2008     4 auto(av)   f        21    30 p    
 5 audi         a4           2.8  1999     6 auto(l5)   f        16    26 p    
 6 audi         a4           2.8  1999     6 manual(m5) f        18    26 p    
 7 audi         a4           3.1  2008     6 auto(av)   f        18    27 p    
 8 audi         a4 quattro   1.8  1999     4 manual(m5) 4        18    26 p    
 9 audi         a4 quattro   1.8  1999     4 auto(l5)   4        16    25 p    
10 audi         a4 quattro   2    2008     4 manual(m6) 4        20    28 p    
   class  
   <chr>  
 1 compact
 2 compact
 3 compact
 4 compact
 5 compact
 6 compact
 7 compact
 8 compact
 9 compact
10 compact
# ℹ 224 more rows
…
