WestDRI - Web scraping with R
…
[,1]      [,2]        [,3]                 
[1,] "12-2022" "Chemistry" "Dr. Ampofo K. Darko"

All looking good, so let’s turn this big list into a tibble:

result <- do.call(rbind.data.frame, list_data) %>%
  tibble::as_tibble()

The notation tibble::as_tibble() means that we are using the function as_tibble() from the package tibble. A tibble is the tidyverse version of a dataframe. One advantage is that it will only print the first 10 rows by default instead of printing the whole dataframe.

Here is our result:

result

# A tibble: 100 × 3
   date    major                                      pi                   
   <chr>   <chr>                                      <chr>                
 1 5-2023  Chemistry                                  Craig E. Barnes      
 2 12-2022 Chemistry                                  Dr. Ampofo K. Darko  
 3 12-2022 Industrial Engineering                     James Ostrowski      
 4 5-2022  Entomology, Plant Pathology and Nematology Heather Kelly        
 5 5-2022  Mechanical Engineering                     Caleb D. Rucker      
 6 12-2022 Electrical Engineering                     Yilu Liu             
 7 5-2022  Comparative and Experimental Medicine      Brian K. Whitlock    
 8 5-2022  History                                    Jay Rubenstein       
 9 12-2022 Anthropology                               Dawnie W. Steadman   
10 12-2022 Mechanical Engineering                     Stephanie C. TerMaath
# … with 90 more rows
# ℹ Use `print(n = ...)` to see more rows

We can rename the headers:

names(result) <- c("Date", "Major", "PI")

This is what our final result looks like:

result

# A tibble: 100 × 3
   Date    Major                                      PI                   
   <chr>   <chr>                                      <chr>                
 1 5-2023  Chemistry                                  Craig E. Barnes      
 2 12-2022 Chemistry                                  Dr. Ampofo K. Darko  
 3 12-2022 Industrial Engineering                     James Ostrowski      
 4 5-2022  Entomology, Plant Pathology and Nematology Heather Kelly        
 5 5-2022  Mechanical Engineering                     Caleb D. Rucker      
 6 12-2022 Electrical Engineering                     Yilu Liu             
 7 5-2022  Comparative and Experimental Medicine      Brian K. Whitlock    
 8 5-2022  History                                    Jay Rubenstein       
 9 12-2022 Anthropology                               Dawnie W. Steadman   
10 12-2022 Mechanical Engineering                     Stephanie C. TerMaath
# … with 90 more rows
# ℹ Use `print(n = ...)` to see more rows
…
